{
  "group": "more_ore",
  "type": "minecraft:crafting_shaped",
  "pattern": [
    " 1 ",
    " 4 ",
    "6 8"
  ],
  "key": {
    "1": {
      "item": "more_ore:sea_prism"
    },
    "4": {
      "item": "more_ore:galactica_singularity"
    },
    "6": {
      "item": "more_ore:life_alloy"
    },
    "8": {
      "item": "more_ore:life_alloy"
    }
  },
  "result": {
    "item": "more_ore:mining_dimension",
    "count": 1
  }
}