{
  "_fv": 24,
  "_type": "recipe",
  "definition": {
    "recipeType": "Crafting",
    "xpReward": 0.0,
    "cookingTime": 200,
    "recipeRetstackSize": 1,
    "group": "",
    "recipeShapeless": false,
    "recipeSlots": [
      {
        "value": ""
      },
      {
        "value": "CUSTOM:SeaPrism"
      },
      {
        "value": ""
      },
      {
        "value": ""
      },
      {
        "value": "CUSTOM:GalacticaSingularity"
      },
      {
        "value": ""
      },
      {
        "value": "CUSTOM:LifeAlloy"
      },
      {
        "value": ""
      },
      {
        "value": "CUSTOM:LifeAlloy"
      }
    ],
    "recipeReturnStack": {
      "value": "CUSTOM:MiningDimension"
    },
    "name": "portal_igniter",
    "namespace": "mod"
  }
}