{
  "parent": "item/handheld",
  "textures": {
    "layer0": "more_ore:items/crystyl_crusher"
  },
	"display": {
        "ground": {
            "rotation": [ 0, 0, 0 ],
            "translation": [ 0, 3, 0],
            "scale":[ 1, 1, 1 ]
        },
        "fixed": {
            "rotation": [ 0, 0, 0 ],
            "translation": [ 0, 0, 0],
            "scale":[ 1, 1, 1 ]
        },
        "thirdperson_righthand": {
            "rotation": [ 0, 90, 40 ],
            "translation": [ 0, 15, 2 ],
            "scale": [ 2.0, 2.0, 2.0 ]
        },
        "firstperson_righthand": {
            "rotation": [ 0, 90, 40 ],
            "translation": [ 0, 15, 2 ],
            "scale": [ 2.0, 2.0, 2.0 ]
        },
        "firstperson_lefthand": {
            "rotation": [ 0, 90, 40 ],
            "translation": [ 0, 15, 2 ],
            "scale": [ 2.0, 2.0, 2.0 ]
        }
    }
}