{
  "ultrawarm": true,
  "natural": false,
  "piglin_safe": true,
  "respawn_anchor_works": true,
  "bed_works": true,
  "has_raids": false,
  "has_skylight": true,
  "has_ceiling": false,
  "coordinate_scale": 1,
  "ambient_light": 0.5,
  "logical_height": 256,
  "infiniburn": "minecraft:infiniburn_overworld",
  "min_y": 0,
  "height": 256,
  "effects": "more_ore:mining_dimension"
}